LAB6/LAB6/ModelSim/Waveforms.vcd
$date
	Mon May 01 10:21:35 2023
$end
$version
	ModelSim Version 2020.1
$end
$timescale
	1ns
$end

$scope module testbench $end

$scope module dut $end

$scope module DS $end
$var wire 1 ! clk $end
$var wire 1 " rst $end
$var wire 1 # Instruction [31] $end
$var wire 1 $ Instruction [30] $end
$var wire 1 % Instruction [29] $end
$var wire 1 & Instruction [28] $end
$var wire 1 ' Instruction [27] $end
$var wire 1 ( Instruction [26] $end
$var wire 1 ) Instruction [25] $end
$var wire 1 * Instruction [24] $end
$var wire 1 + Instruction [23] $end
$var wire 1 , Instruction [22] $end
$var wire 1 - Instruction [21] $end
$var wire 1 . Instruction [20] $end
$var wire 1 / Instruction [19] $end
$var wire 1 0 Instruction [18] $end
$var wire 1 1 Instruction [17] $end
$var wire 1 2 Instruction [16] $end
$var wire 1 3 Instruction [15] $end
$var wire 1 4 Instruction [14] $end
$var wire 1 5 Instruction [13] $end
$var wire 1 6 Instruction [12] $end
$var wire 1 7 Instruction [11] $end
$var wire 1 8 Instruction [10] $end
$var wire 1 9 Instruction [9] $end
$var wire 1 : Instruction [8] $end
$var wire 1 ; Instruction [7] $end
$var wire 1 < Instruction [6] $end
$var wire 1 = Instruction [5] $end
$var wire 1 > Instruction [4] $end
$var wire 1 ? Instruction [3] $end
$var wire 1 @ Instruction [2] $end
$var wire 1 A Instruction [1] $end
$var wire 1 B Instruction [0] $end
$var wire 1 C Result_Wb [31] $end
$var wire 1 D Result_Wb [30] $end
$var wire 1 E Result_Wb [29] $end
$var wire 1 F Result_Wb [28] $end
$var wire 1 G Result_Wb [27] $end
$var wire 1 H Result_Wb [26] $end
$var wire 1 I Result_Wb [25] $end
$var wire 1 J Result_Wb [24] $end
$var wire 1 K Result_Wb [23] $end
$var wire 1 L Result_Wb [22] $end
$var wire 1 M Result_Wb [21] $end
$var wire 1 N Result_Wb [20] $end
$var wire 1 O Result_Wb [19] $end
$var wire 1 P Result_Wb [18] $end
$var wire 1 Q Result_Wb [17] $end
$var wire 1 R Result_Wb [16] $end
$var wire 1 S Result_Wb [15] $end
$var wire 1 T Result_Wb [14] $end
$var wire 1 U Result_Wb [13] $end
$var wire 1 V Result_Wb [12] $end
$var wire 1 W Result_Wb [11] $end
$var wire 1 X Result_Wb [10] $end
$var wire 1 Y Result_Wb [9] $end
$var wire 1 Z Result_Wb [8] $end
$var wire 1 [ Result_Wb [7] $end
$var wire 1 \ Result_Wb [6] $end
$var wire 1 ] Result_Wb [5] $end
$var wire 1 ^ Result_Wb [4] $end
$var wire 1 _ Result_Wb [3] $end
$var wire 1 ` Result_Wb [2] $end
$var wire 1 a Result_Wb [1] $end
$var wire 1 b Result_Wb [0] $end
$var wire 1 c Status_Reg [3] $end
$var wire 1 d Status_Reg [2] $end
$var wire 1 e Status_Reg [1] $end
$var wire 1 f Status_Reg [0] $end
$var wire 1 g Dest_wb [3] $end
$var wire 1 h Dest_wb [2] $end
$var wire 1 i Dest_wb [1] $end
$var wire 1 j Dest_wb [0] $end
$var wire 1 k hazard $end
$var wire 1 l WB_WB_EN $end
$var wire 1 m Signed_imm_24 [23] $end
$var wire 1 n Signed_imm_24 [22] $end
$var wire 1 o Signed_imm_24 [21] $end
$var wire 1 p Signed_imm_24 [20] $end
$var wire 1 q Signed_imm_24 [19] $end
$var wire 1 r Signed_imm_24 [18] $end
$var wire 1 s Signed_imm_24 [17] $end
$var wire 1 t Signed_imm_24 [16] $end
$var wire 1 u Signed_imm_24 [15] $end
$var wire 1 v Signed_imm_24 [14] $end
$var wire 1 w Signed_imm_24 [13] $end
$var wire 1 x Signed_imm_24 [12] $end
$var wire 1 y Signed_imm_24 [11] $end
$var wire 1 z Signed_imm_24 [10] $end
$var wire 1 { Signed_imm_24 [9] $end
$var wire 1 | Signed_imm_24 [8] $end
$var wire 1 } Signed_imm_24 [7] $end
$var wire 1 ~ Signed_imm_24 [6] $end
$var wire 1 !! Signed_imm_24 [5] $end
$var wire 1 "! Signed_imm_24 [4] $end
$var wire 1 #! Signed_imm_24 [3] $end
$var wire 1 $! Signed_imm_24 [2] $end
$var wire 1 %! Signed_imm_24 [1] $end
$var wire 1 &! Signed_imm_24 [0] $end
$var wire 1 '! Dest [3] $end
$var wire 1 (! Dest [2] $end
$var wire 1 )! Dest [1] $end
$var wire 1 *! Dest [0] $end
$var wire 1 +! B $end
$var wire 1 ,! S $end
$var wire 1 -! MEM_W_EN $end
$var wire 1 .! MEM_R_EN $end
$var wire 1 /! WB_EN $end
$var wire 1 0! EXE_CMD [3] $end
$var wire 1 1! EXE_CMD [2] $end
$var wire 1 2! EXE_CMD [1] $end
$var wire 1 3! EXE_CMD [0] $end
$var wire 1 4! Val_Rn [31] $end
$var wire 1 5! Val_Rn [30] $end
$var wire 1 6! Val_Rn [29] $end
$var wire 1 7! Val_Rn [28] $end
$var wire 1 8! Val_Rn [27] $end
$var wire 1 9! Val_Rn [26] $end
$var wire 1 :! Val_Rn [25] $end
$var wire 1 ;! Val_Rn [24] $end
$var wire 1 <! Val_Rn [23] $end
$var wire 1 =! Val_Rn [22] $end
$var wire 1 >! Val_Rn [21] $end
$var wire 1 ?! Val_Rn [20] $end
$var wire 1 @! Val_Rn [19] $end
$var wire 1 A! Val_Rn [18] $end
$var wire 1 B! Val_Rn [17] $end
$var wire 1 C! Val_Rn [16] $end
$var wire 1 D! Val_Rn [15] $end
$var wire 1 E! Val_Rn [14] $end
$var wire 1 F! Val_Rn [13] $end
$var wire 1 G! Val_Rn [12] $end
$var wire 1 H! Val_Rn [11] $end
$var wire 1 I! Val_Rn [10] $end
$var wire 1 J! Val_Rn [9] $end
$var wire 1 K! Val_Rn [8] $end
$var wire 1 L! Val_Rn [7] $end
$var wire 1 M! Val_Rn [6] $end
$var wire 1 N! Val_Rn [5] $end
$var wire 1 O! Val_Rn [4] $end
$var wire 1 P! Val_Rn [3] $end
$var wire 1 Q! Val_Rn [2] $end
$var wire 1 R! Val_Rn [1] $end
$var wire 1 S! Val_Rn [0] $end
$var wire 1 T! Val_Rm [31] $end
$var wire 1 U! Val_Rm [30] $end
$var wire 1 V! Val_Rm [29] $end
$var wire 1 W! Val_Rm [28] $end
$var wire 1 X! Val_Rm [27] $end
$var wire 1 Y! Val_Rm [26] $end
$var wire 1 Z! Val_Rm [25] $end
$var wire 1 [! Val_Rm [24] $end
$var wire 1 \! Val_Rm [23] $end
$var wire 1 ]! Val_Rm [22] $end
$var wire 1 ^! Val_Rm [21] $end
$var wire 1 _! Val_Rm [20] $end
$var wire 1 `! Val_Rm [19] $end
$var wire 1 a! Val_Rm [18] $end
$var wire 1 b! Val_Rm [17] $end
$var wire 1 c! Val_Rm [16] $end
$var wire 1 d! Val_Rm [15] $end
$var wire 1 e! Val_Rm [14] $end
$var wire 1 f! Val_Rm [13] $end
$var wire 1 g! Val_Rm [12] $end
$var wire 1 h! Val_Rm [11] $end
$var wire 1 i! Val_Rm [10] $end
$var wire 1 j! Val_Rm [9] $end
$var wire 1 k! Val_Rm [8] $end
$var wire 1 l! Val_Rm [7] $end
$var wire 1 m! Val_Rm [6] $end
$var wire 1 n! Val_Rm [5] $end
$var wire 1 o! Val_Rm [4] $end
$var wire 1 p! Val_Rm [3] $end
$var wire 1 q! Val_Rm [2] $end
$var wire 1 r! Val_Rm [1] $end
$var wire 1 s! Val_Rm [0] $end
$var wire 1 t! imm $end
$var wire 1 u! Shift_operand [11] $end
$var wire 1 v! Shift_operand [10] $end
$var wire 1 w! Shift_operand [9] $end
$var wire 1 x! Shift_operand [8] $end
$var wire 1 y! Shift_operand [7] $end
$var wire 1 z! Shift_operand [6] $end
$var wire 1 {! Shift_operand [5] $end
$var wire 1 |! Shift_operand [4] $end
$var wire 1 }! Shift_operand [3] $end
$var wire 1 ~! Shift_operand [2] $end
$var wire 1 !" Shift_operand [1] $end
$var wire 1 "" Shift_operand [0] $end
$var wire 1 #" src1 [3] $end
$var wire 1 $" src1 [2] $end
$var wire 1 %" src1 [1] $end
$var wire 1 &" src1 [0] $end
$var wire 1 '" src2 [3] $end
$var wire 1 (" src2 [2] $end
$var wire 1 )" src2 [1] $end
$var wire 1 *" src2 [0] $end
$var wire 1 +" Two_src $end
$var wire 1 ," Rm [3] $end
$var wire 1 -" Rm [2] $end
$var wire 1 ." Rm [1] $end
$var wire 1 /" Rm [0] $end
$var wire 1 0" Rn [3] $end
$var wire 1 1" Rn [2] $end
$var wire 1 2" Rn [1] $end
$var wire 1 3" Rn [0] $end
$var wire 1 4" Rd [3] $end
$var wire 1 5" Rd [2] $end
$var wire 1 6" Rd [1] $end
$var wire 1 7" Rd [0] $end
$var wire 1 8" opcode [3] $end
$var wire 1 9" opcode [2] $end
$var wire 1 :" opcode [1] $end
$var wire 1 ;" opcode [0] $end
$var wire 1 <" S_in $end
$var wire 1 =" mode [1] $end
$var wire 1 >" mode [0] $end
$var wire 1 ?" cond [3] $end
$var wire 1 @" cond [2] $end
$var wire 1 A" cond [1] $end
$var wire 1 B" cond [0] $end
$var wire 1 C" in1_Addr [3] $end
$var wire 1 D" in1_Addr [2] $end
$var wire 1 E" in1_Addr [1] $end
$var wire 1 F" in1_Addr [0] $end
$var wire 1 G" in2_Addr [3] $end
$var wire 1 H" in2_Addr [2] $end
$var wire 1 I" in2_Addr [1] $end
$var wire 1 J" in2_Addr [0] $end
$var wire 1 K" cond_check $end
$var wire 1 L" CU_B $end
$var wire 1 M" CU_MEM_W_EN $end
$var wire 1 N" CU_MEM_R_EN $end
$var wire 1 O" CU_WB_EN $end
$var wire 1 P" CU_up_status $end
$var wire 1 Q" CU_EXE_CMD [3] $end
$var wire 1 R" CU_EXE_CMD [2] $end
$var wire 1 S" CU_EXE_CMD [1] $end
$var wire 1 T" CU_EXE_CMD [0] $end

$scope module RF $end
$var wire 1 ! clk $end
$var wire 1 " rst $end
$var wire 1 C" src1 [3] $end
$var wire 1 D" src1 [2] $end
$var wire 1 E" src1 [1] $end
$var wire 1 F" src1 [0] $end
$var wire 1 G" src2 [3] $end
$var wire 1 H" src2 [2] $end
$var wire 1 I" src2 [1] $end
$var wire 1 J" src2 [0] $end
$var wire 1 g Dest_wb [3] $end
$var wire 1 h Dest_wb [2] $end
$var wire 1 i Dest_wb [1] $end
$var wire 1 j Dest_wb [0] $end
$var wire 1 C Result_wb [31] $end
$var wire 1 D Result_wb [30] $end
$var wire 1 E Result_wb [29] $end
$var wire 1 F Result_wb [28] $end
$var wire 1 G Result_wb [27] $end
$var wire 1 H Result_wb [26] $end
$var wire 1 I Result_wb [25] $end
$var wire 1 J Result_wb [24] $end
$var wire 1 K Result_wb [23] $end
$var wire 1 L Result_wb [22] $end
$var wire 1 M Result_wb [21] $end
$var wire 1 N Result_wb [20] $end
$var wire 1 O Result_wb [19] $end
$var wire 1 P Result_wb [18] $end
$var wire 1 Q Result_wb [17] $end
$var wire 1 R Result_wb [16] $end
$var wire 1 S Result_wb [15] $end
$var wire 1 T Result_wb [14] $end
$var wire 1 U Result_wb [13] $end
$var wire 1 V Result_wb [12] $end
$var wire 1 W Result_wb [11] $end
$var wire 1 X Result_wb [10] $end
$var wire 1 Y Result_wb [9] $end
$var wire 1 Z Result_wb [8] $end
$var wire 1 [ Result_wb [7] $end
$var wire 1 \ Result_wb [6] $end
$var wire 1 ] Result_wb [5] $end
$var wire 1 ^ Result_wb [4] $end
$var wire 1 _ Result_wb [3] $end
$var wire 1 ` Result_wb [2] $end
$var wire 1 a Result_wb [1] $end
$var wire 1 b Result_wb [0] $end
$var wire 1 l writeBackEn $end
$var wire 1 4! reg1 [31] $end
$var wire 1 5! reg1 [30] $end
$var wire 1 6! reg1 [29] $end
$var wire 1 7! reg1 [28] $end
$var wire 1 8! reg1 [27] $end
$var wire 1 9! reg1 [26] $end
$var wire 1 :! reg1 [25] $end
$var wire 1 ;! reg1 [24] $end
$var wire 1 <! reg1 [23] $end
$var wire 1 =! reg1 [22] $end
$var wire 1 >! reg1 [21] $end
$var wire 1 ?! reg1 [20] $end
$var wire 1 @! reg1 [19] $end
$var wire 1 A! reg1 [18] $end
$var wire 1 B! reg1 [17] $end
$var wire 1 C! reg1 [16] $end
$var wire 1 D! reg1 [15] $end
$var wire 1 E! reg1 [14] $end
$var wire 1 F! reg1 [13] $end
$var wire 1 G! reg1 [12] $end
$var wire 1 H! reg1 [11] $end
$var wire 1 I! reg1 [10] $end
$var wire 1 J! reg1 [9] $end
$var wire 1 K! reg1 [8] $end
$var wire 1 L! reg1 [7] $end
$var wire 1 M! reg1 [6] $end
$var wire 1 N! reg1 [5] $end
$var wire 1 O! reg1 [4] $end
$var wire 1 P! reg1 [3] $end
$var wire 1 Q! reg1 [2] $end
$var wire 1 R! reg1 [1] $end
$var wire 1 S! reg1 [0] $end
$var wire 1 T! reg2 [31] $end
$var wire 1 U! reg2 [30] $end
$var wire 1 V! reg2 [29] $end
$var wire 1 W! reg2 [28] $end
$var wire 1 X! reg2 [27] $end
$var wire 1 Y! reg2 [26] $end
$var wire 1 Z! reg2 [25] $end
$var wire 1 [! reg2 [24] $end
$var wire 1 \! reg2 [23] $end
$var wire 1 ]! reg2 [22] $end
$var wire 1 ^! reg2 [21] $end
$var wire 1 _! reg2 [20] $end
$var wire 1 `! reg2 [19] $end
$var wire 1 a! reg2 [18] $end
$var wire 1 b! reg2 [17] $end
$var wire 1 c! reg2 [16] $end
$var wire 1 d! reg2 [15] $end
$var wire 1 e! reg2 [14] $end
$var wire 1 f! reg2 [13] $end
$var wire 1 g! reg2 [12] $end
$var wire 1 h! reg2 [11] $end
$var wire 1 i! reg2 [10] $end
$var wire 1 j! reg2 [9] $end
$var wire 1 k! reg2 [8] $end
$var wire 1 l! reg2 [7] $end
$var wire 1 m! reg2 [6] $end
$var wire 1 n! reg2 [5] $end
$var wire 1 o! reg2 [4] $end
$var wire 1 p! reg2 [3] $end
$var wire 1 q! reg2 [2] $end
$var wire 1 r! reg2 [1] $end
$var wire 1 s! reg2 [0] $end
$var integer 32 U" i $end
$upscope $end

$scope module CU $end
$var wire 1 =" mode [1] $end
$var wire 1 >" mode [0] $end
$var wire 1 8" opcode [3] $end
$var wire 1 9" opcode [2] $end
$var wire 1 :" opcode [1] $end
$var wire 1 ;" opcode [0] $end
$var wire 1 ,! S $end
$var wire 1 # Instruction [31] $end
$var wire 1 $ Instruction [30] $end
$var wire 1 % Instruction [29] $end
$var wire 1 & Instruction [28] $end
$var wire 1 ' Instruction [27] $end
$var wire 1 ( Instruction [26] $end
$var wire 1 ) Instruction [25] $end
$var wire 1 * Instruction [24] $end
$var wire 1 + Instruction [23] $end
$var wire 1 , Instruction [22] $end
$var wire 1 - Instruction [21] $end
$var wire 1 . Instruction [20] $end
$var wire 1 / Instruction [19] $end
$var wire 1 0 Instruction [18] $end
$var wire 1 1 Instruction [17] $end
$var wire 1 2 Instruction [16] $end
$var wire 1 3 Instruction [15] $end
$var wire 1 4 Instruction [14] $end
$var wire 1 5 Instruction [13] $end
$var wire 1 6 Instruction [12] $end
$var wire 1 7 Instruction [11] $end
$var wire 1 8 Instruction [10] $end
$var wire 1 9 Instruction [9] $end
$var wire 1 : Instruction [8] $end
$var wire 1 ; Instruction [7] $end
$var wire 1 < Instruction [6] $end
$var wire 1 = Instruction [5] $end
$var wire 1 > Instruction [4] $end
$var wire 1 ? Instruction [3] $end
$var wire 1 @ Instruction [2] $end
$var wire 1 A Instruction [1] $end
$var wire 1 B Instruction [0] $end
$var reg 1 V" mem_write $end
$var reg 1 W" mem_read $end
$var reg 1 X" WB_enable $end
$var reg 1 Y" B $end
$var reg 4 Z" EXE_CMD [3:0] $end
$var reg 1 [" up_status $end
$upscope $end

$scope module CC $end
$var wire 1 ?" cond [3] $end
$var wire 1 @" cond [2] $end
$var wire 1 A" cond [1] $end
$var wire 1 B" cond [0] $end
$var wire 1 c Status_Reg [3] $end
$var wire 1 d Status_Reg [2] $end
$var wire 1 e Status_Reg [1] $end
$var wire 1 f Status_Reg [0] $end
$var reg 1 \" cond_check $end
$var wire 1 ]" Z_SR $end
$var wire 1 ^" C $end
$var wire 1 _" N $end
$var wire 1 `" V $end
$upscope $end
$upscope $end

$scope module DR $end
$var wire 1 ! clk $end
$var wire 1 " rst $end
$var wire 1 a" flush $end
$var wire 1 b" PC_in [31] $end
$var wire 1 c" PC_in [30] $end
$var wire 1 d" PC_in [29] $end
$var wire 1 e" PC_in [28] $end
$var wire 1 f" PC_in [27] $end
$var wire 1 g" PC_in [26] $end
$var wire 1 h" PC_in [25] $end
$var wire 1 i" PC_in [24] $end
$var wire 1 j" PC_in [23] $end
$var wire 1 k" PC_in [22] $end
$var wire 1 l" PC_in [21] $end
$var wire 1 m" PC_in [20] $end
$var wire 1 n" PC_in [19] $end
$var wire 1 o" PC_in [18] $end
$var wire 1 p" PC_in [17] $end
$var wire 1 q" PC_in [16] $end
$var wire 1 r" PC_in [15] $end
$var wire 1 s" PC_in [14] $end
$var wire 1 t" PC_in [13] $end
$var wire 1 u" PC_in [12] $end
$var wire 1 v" PC_in [11] $end
$var wire 1 w" PC_in [10] $end
$var wire 1 x" PC_in [9] $end
$var wire 1 y" PC_in [8] $end
$var wire 1 z" PC_in [7] $end
$var wire 1 {" PC_in [6] $end
$var wire 1 |" PC_in [5] $end
$var wire 1 }" PC_in [4] $end
$var wire 1 ~" PC_in [3] $end
$var wire 1 !# PC_in [2] $end
$var wire 1 "# PC_in [1] $end
$var wire 1 ## PC_in [0] $end
$var wire 1 4! Val_Rn_in [31] $end
$var wire 1 5! Val_Rn_in [30] $end
$var wire 1 6! Val_Rn_in [29] $end
$var wire 1 7! Val_Rn_in [28] $end
$var wire 1 8! Val_Rn_in [27] $end
$var wire 1 9! Val_Rn_in [26] $end
$var wire 1 :! Val_Rn_in [25] $end
$var wire 1 ;! Val_Rn_in [24] $end
$var wire 1 <! Val_Rn_in [23] $end
$var wire 1 =! Val_Rn_in [22] $end
$var wire 1 >! Val_Rn_in [21] $end
$var wire 1 ?! Val_Rn_in [20] $end
$var wire 1 @! Val_Rn_in [19] $end
$var wire 1 A! Val_Rn_in [18] $end
$var wire 1 B! Val_Rn_in [17] $end
$var wire 1 C! Val_Rn_in [16] $end
$var wire 1 D! Val_Rn_in [15] $end
$var wire 1 E! Val_Rn_in [14] $end
$var wire 1 F! Val_Rn_in [13] $end
$var wire 1 G! Val_Rn_in [12] $end
$var wire 1 H! Val_Rn_in [11] $end
$var wire 1 I! Val_Rn_in [10] $end
$var wire 1 J! Val_Rn_in [9] $end
$var wire 1 K! Val_Rn_in [8] $end
$var wire 1 L! Val_Rn_in [7] $end
$var wire 1 M! Val_Rn_in [6] $end
$var wire 1 N! Val_Rn_in [5] $end
$var wire 1 O! Val_Rn_in [4] $end
$var wire 1 P! Val_Rn_in [3] $end
$var wire 1 Q! Val_Rn_in [2] $end
$var wire 1 R! Val_Rn_in [1] $end
$var wire 1 S! Val_Rn_in [0] $end
$var wire 1 T! Val_Rm_in [31] $end
$var wire 1 U! Val_Rm_in [30] $end
$var wire 1 V! Val_Rm_in [29] $end
$var wire 1 W! Val_Rm_in [28] $end
$var wire 1 X! Val_Rm_in [27] $end
$var wire 1 Y! Val_Rm_in [26] $end
$var wire 1 Z! Val_Rm_in [25] $end
$var wire 1 [! Val_Rm_in [24] $end
$var wire 1 \! Val_Rm_in [23] $end
$var wire 1 ]! Val_Rm_in [22] $end
$var wire 1 ^! Val_Rm_in [21] $end
$var wire 1 _! Val_Rm_in [20] $end
$var wire 1 `! Val_Rm_in [19] $end
$var wire 1 a! Val_Rm_in [18] $end
$var wire 1 b! Val_Rm_in [17] $end
$var wire 1 c! Val_Rm_in [16] $end
$var wire 1 d! Val_Rm_in [15] $end
$var wire 1 e! Val_Rm_in [14] $end
$var wire 1 f! Val_Rm_in [13] $end
$var wire 1 g! Val_Rm_in [12] $end
$var wire 1 h! Val_Rm_in [11] $end
$var wire 1 i! Val_Rm_in [10] $end
$var wire 1 j! Val_Rm_in [9] $end
$var wire 1 k! Val_Rm_in [8] $end
$var wire 1 l! Val_Rm_in [7] $end
$var wire 1 m! Val_Rm_in [6] $end
$var wire 1 n! Val_Rm_in [5] $end
$var wire 1 o! Val_Rm_in [4] $end
$var wire 1 p! Val_Rm_in [3] $end
$var wire 1 q! Val_Rm_in [2] $end
$var wire 1 r! Val_Rm_in [1] $end
$var wire 1 s! Val_Rm_in [0] $end
$var wire 1 +! B_in $end
$var wire 1 ,! S_in $end
$var wire 1 .! MEM_R_EN_in $end
$var wire 1 -! MEM_W_EN_in $end
$var wire 1 /! WB_EN_in $end
$var wire 1 t! imm_in $end
$var wire 1 m Signed_imm_24_in [23] $end
$var wire 1 n Signed_imm_24_in [22] $end
$var wire 1 o Signed_imm_24_in [21] $end
$var wire 1 p Signed_imm_24_in [20] $end
$var wire 1 q Signed_imm_24_in [19] $end
$var wire 1 r Signed_imm_24_in [18] $end
$var wire 1 s Signed_imm_24_in [17] $end
$var wire 1 t Signed_imm_24_in [16] $end
$var wire 1 u Signed_imm_24_in [15] $end
$var wire 1 v Signed_imm_24_in [14] $end
$var wire 1 w Signed_imm_24_in [13] $end
$var wire 1 x Signed_imm_24_in [12] $end
$var wire 1 y Signed_imm_24_in [11] $end
$var wire 1 z Signed_imm_24_in [10] $end
$var wire 1 { Signed_imm_24_in [9] $end
$var wire 1 | Signed_imm_24_in [8] $end
$var wire 1 } Signed_imm_24_in [7] $end
$var wire 1 ~ Signed_imm_24_in [6] $end
$var wire 1 !! Signed_imm_24_in [5] $end
$var wire 1 "! Signed_imm_24_in [4] $end
$var wire 1 #! Signed_imm_24_in [3] $end
$var wire 1 $! Signed_imm_24_in [2] $end
$var wire 1 %! Signed_imm_24_in [1] $end
$var wire 1 &! Signed_imm_24_in [0] $end
$var wire 1 '! Dest_in [3] $end
$var wire 1 (! Dest_in [2] $end
$var wire 1 )! Dest_in [1] $end
$var wire 1 *! Dest_in [0] $end
$var wire 1 0! EXE_CMD_in [3] $end
$var wire 1 1! EXE_CMD_in [2] $end
$var wire 1 2! EXE_CMD_in [1] $end
$var wire 1 3! EXE_CMD_in [0] $end
$var wire 1 c Status_Reg_in [3] $end
$var wire 1 d Status_Reg_in [2] $end
$var wire 1 e Status_Reg_in [1] $end
$var wire 1 f Status_Reg_in [0] $end
$var wire 1 u! Shift_operand_in [11] $end
$var wire 1 v! Shift_operand_in [10] $end
$var wire 1 w! Shift_operand_in [9] $end
$var wire 1 x! Shift_operand_in [8] $end
$var wire 1 y! Shift_operand_in [7] $end
$var wire 1 z! Shift_operand_in [6] $end
$var wire 1 {! Shift_operand_in [5] $end
$var wire 1 |! Shift_operand_in [4] $end
$var wire 1 }! Shift_operand_in [3] $end
$var wire 1 ~! Shift_operand_in [2] $end
$var wire 1 !" Shift_operand_in [1] $end
$var wire 1 "" Shift_operand_in [0] $end
$var wire 1 #" src1_in [3] $end
$var wire 1 $" src1_in [2] $end
$var wire 1 %" src1_in [1] $end
$var wire 1 &" src1_in [0] $end
$var wire 1 '" src2_in [3] $end
$var wire 1 (" src2_in [2] $end
$var wire 1 )" src2_in [1] $end
$var wire 1 *" src2_in [0] $end
$var wire 1 $# freeze $end
$var reg 32 %# PC [31:0] $end
$var reg 24 &# Signed_imm_24 [23:0] $end
$var reg 4 '# Dest [3:0] $end
$var reg 1 (# B $end
$var reg 1 )# S $end
$var reg 1 *# MEM_W_EN $end
$var reg 1 +# MEM_R_EN $end
$var reg 1 ,# WB_EN $end
$var reg 1 -# imm $end
$var reg 4 .# EXE_CMD [3:0] $end
$var reg 4 /# Status_Reg [3:0] $end
$var reg 32 0# Val_Rm [31:0] $end
$var reg 32 1# Val_Rn [31:0] $end
$var reg 12 2# Shift_operand [11:0] $end
$var reg 4 3# src1 [3:0] $end
$var reg 4 4# src2 [3:0] $end
$upscope $end
$upscope $end
$upscope $end
$enddefinitions $end
#0
$dumpvars
0V"
0W"
1X"
0Y"
b110 Z"
0["
0\"
b0 %#
b0 &#
b0 '#
0(#
0)#
0*#
0+#
0,#
0-#
b0 .#
b0 /#
b0 0#
b0 1#
b0 2#
b0 3#
b0 4#
b1111 U"
0##
0"#
0!#
0~"
0}"
0|"
0{"
0z"
0y"
0x"
0w"
0v"
0u"
0t"
0s"
0r"
0q"
0p"
0o"
0n"
0m"
0l"
0k"
0j"
0i"
0h"
0g"
0f"
0e"
0d"
0c"
0b"
0B
0A
0@
0?
0>
0=
0<
0;
0:
09
08
07
06
05
04
03
02
01
00
0/
0.
0-
0,
0+
0*
0)
0(
0'
0&
0%
0$
0#
0a"
1"
0k
0$#
x!
0&!
0%!
0$!
0#!
0"!
0!!
0~
0}
0|
0{
0z
0y
0x
0w
0v
0u
0t
0s
0r
0q
0p
0o
0n
0m
0,!
0+!
0.!
0-!
0/!
0l
0*!
0)!
0(!
0'!
0j
0i
0h
0g
03!
02!
01!
00!
0S!
0R!
0Q!
0P!
0O!
0N!
0M!
0L!
0K!
0J!
0I!
0H!
0G!
0F!
0E!
0D!
0C!
0B!
0A!
0@!
0?!
0>!
0=!
0<!
0;!
0:!
09!
08!
07!
06!
05!
04!
0s!
0r!
0q!
0p!
0o!
0n!
0m!
0l!
0k!
0j!
0i!
0h!
0g!
0f!
0e!
0d!
0c!
0b!
0a!
0`!
0_!
0^!
0]!
0\!
0[!
0Z!
0Y!
0X!
0W!
0V!
0U!
0T!
0b
0a
0`
0_
0^
0]
0\
0[
0Z
0Y
0X
0W
0V
0U
0T
0S
0R
0Q
0P
0O
0N
0M
0L
0K
0J
0I
0H
0G
0F
0E
0D
0C
0t!
0""
0!"
0~!
0}!
0|!
0{!
0z!
0y!
0x!
0w!
0v!
0u!
0f
0e
0d
0c
0&"
0%"
0$"
0#"
0*"
0)"
0("
0'"
1+"
0/"
0."
0-"
0,"
03"
02"
01"
00"
07"
06"
05"
04"
0;"
0:"
09"
08"
0<"
0>"
0="
0B"
0A"
0@"
0?"
0F"
0E"
0D"
0C"
0J"
0I"
0H"
0G"
0K"
0L"
0M"
0N"
1O"
0P"
0T"
1S"
1R"
0Q"
0]"
0^"
0_"
0`"
$end
#5
0!
b0 U"
b1 U"
b10 U"
b11 U"
b100 U"
b101 U"
b110 U"
b111 U"
b1000 U"
b1001 U"
b1010 U"
b1011 U"
b1100 U"
b1101 U"
b1110 U"
b1111 U"
#10
0"
#15
1!
1@
1>
1-
1+
1*
1)
1%
1$
1#
1!#
1t!
0+"
1~!
1|!
1-"
1$!
1"!
1H"
1q!
1("
1A"
1@"
1?"
1;"
19"
18"
0X"
b0 Z"
1X"
b1 Z"
1\"
1K"
1T"
0S"
0R"
13!
1/!
#25
0!
#35
1!
b100 4#
b10100 2#
1-#
b100 0#
b1 .#
1,#
b10100 &#
b100 %#
1B
0@
0>
19
17
16
0!#
1~"
17"
1""
0~!
0|!
1w!
1u!
1/"
0-"
1&!
0$!
0"!
1*!
1J"
0H"
1s!
0q!
1*"
0("
#45
0!
#55
1!
b1 4#
b101000000001 2#
b1 0#
b1 '#
b1 &#
b1000 %#
1A
1:
09
07
06
15
1!#
07"
16"
1!"
1x!
0w!
0u!
1."
1%!
0*!
1)!
1I"
1r!
1)"
#65
0!
#75
1!
b11 4#
b100000011 2#
b11 0#
b10 '#
b11 &#
b1100 %#
0B
0:
16
11
1.
0-
0*
0)
0!#
0~"
1}"
1l
0t!
1<"
1+"
12"
17"
0""
0x!
0/"
0&!
1*!
0J"
1E"
1R!
1%"
0s!
0*"
1,!
0;"
08"
0X"
b0 Z"
1["
1X"
b10 Z"
1P"
0T"
1S"
1`
1^
03!
12!
#85
0!
#95
1!
b10 4#
b10 3#
b10 2#
0-#
b10 1#
b10 0#
b10 .#
1)#
b11 '#
b10 &#
b10000 %#
1j
0A
06
05
14
01
0.
1-
1!#
0<"
02"
07"
06"
15"
0!"
0."
0%!
0*!
0)!
1(!
0I"
0E"
0R!
1Q!
1O!
0%"
0r!
1q!
1o!
0)"
0,!
1;"
0X"
b0 Z"
0["
1X"
b11 Z"
0P"
1T"
0`
0^
1V
13!
#105
0!
1e
1c
1_"
1^"
0\"
1\"
#115
1!
b0 4#
b0 3#
b1010 /#
b0 2#
b10100 1#
b10100 0#
b11 .#
0)#
b100 '#
b0 &#
b10100 %#
0j
1i
1@
1:
16
10
0-
1,
0+
0!#
1~"
11"
17"
1~!
1x!
1-"
1$!
1*!
1H"
1D"
0O!
1$"
0o!
1("
0;"
1:"
09"
0X"
b0 Z"
1X"
b100 Z"
0T"
0S"
1R"
0V
1D
1C
03!
02!
11!
#125
0!
#135
1!
b100 4#
b100 3#
b100000100 2#
b100 1#
b100 0#
b100 .#
b101 '#
b100 &#
b11000 %#
1j
0@
1=
1;
0:
06
15
00
1+
1!#
01"
07"
16"
0~!
1{!
1y!
0x!
0-"
0$!
1!!
1}
1|
1{
1z
1y
1x
1w
1v
1u
1t
1s
1r
1q
1p
1o
1n
1m
0*!
1)!
0H"
0D"
1O!
0$"
1o!
0("
19"
0X"
b0 Z"
1X"
b101 Z"
1T"
0D
13!
#145
0!
#155
1!
b0 4#
b0 3#
b10100000 2#
b10100 1#
b10100 0#
b101 .#
b110 '#
b111111111111111110100000 &#
b11100 %#
0j
0i
1h
1A
0=
1<
0;
1:
16
12
10
0,
1*
0!#
0~"
0}"
1|"
13"
11"
17"
1!"
0{!
1z!
0y!
1x!
1."
1%!
0!!
1~
0}
0|
0{
0z
0y
0x
0w
0v
0u
0t
0s
0r
0q
0p
0o
0n
0m
1*!
1I"
1F"
1D"
1S!
0O!
1&"
1$"
0q!
0o!
1U!
1T!
1)"
0:"
18"
0X"
b0 Z"
1X"
b111 Z"
1S"
1b
1_
1]
0C
12!
#165
0!
